<?xml version="1.0" encoding="UTF-8" standalone="no"?>
<!-- Created with Inkscape (http://www.inkscape.org/) -->

<svg
   xmlns:dc="http://purl.org/dc/elements/1.1/"
   xmlns:cc="http://creativecommons.org/ns#"
   xmlns:rdf="http://www.w3.org/1999/02/22-rdf-syntax-ns#"
   xmlns:svg="http://www.w3.org/2000/svg"
   xmlns="http://www.w3.org/2000/svg"
   xmlns:xlink="http://www.w3.org/1999/xlink"
   xmlns:sodipodi="http://sodipodi.sourceforge.net/DTD/sodipodi-0.dtd"
   xmlns:inkscape="http://www.inkscape.org/namespaces/inkscape"
   id="svg3039"
   version="1.1"
   inkscape:version="0.48.3.1 r9886"
   width="253"
   height="300"
   sodipodi:docname="infographic.svg">
  <metadata
     id="metadata3045">
    <rdf:RDF>
      <cc:Work
         rdf:about="">
        <dc:format>image/svg+xml</dc:format>
        <dc:type
           rdf:resource="http://purl.org/dc/dcmitype/StillImage" />
        <dc:title />
      </cc:Work>
    </rdf:RDF>
  </metadata>
  <defs
     id="defs3043" />
  <sodipodi:namedview
     pagecolor="#ffffff"
     bordercolor="#666666"
     borderopacity="1"
     objecttolerance="10"
     gridtolerance="10"
     guidetolerance="10"
     inkscape:pageopacity="0"
     inkscape:pageshadow="2"
     inkscape:window-width="1598"
     inkscape:window-height="1130"
     id="namedview3041"
     showgrid="false"
     showguides="true"
     inkscape:guide-bbox="true"
     inkscape:zoom="3.1133333"
     inkscape:cx="129.53929"
     inkscape:cy="177.91483"
     inkscape:window-x="0"
     inkscape:window-y="0"
     inkscape:window-maximized="1"
     inkscape:current-layer="svg3039">
    <sodipodi:guide
       orientation="0,1"
       position="181.79872,317.98715"
       id="guide3057" />
  </sodipodi:namedview>
  <image
     width="253"
     height="300"
     xlink:href="data:image/png;base64,iVBORw0KGgoAAAANSUhEUgAAAP0AAAEsCAYAAAAIILXCAAAABHNCSVQICAgIfAhkiAAAIABJREFU eJztnXd4G1W6xt8ZyZbc5N4d23F3mtOdSgohkJAESAgEWMLS2WXZC1ngUnZpC8suLEu/wAJLCbBA KIFQQippTnWLW9x7r5LVy8z9Y+SRFMu2ZEu2ZJ3f8+SJypmZI1nvnHO+8xUqY8UGVtNvAFgQCIRJ jkgigFAjM0x0PwgEwjih6TdAOPCEFlIQiKiJ7A+BQHASBg0LRs8CLEyiF4opiEOEwx1HIBDcFFW3 nhM9AHqC+0IgEMYZInoCwcMgoicQPAwiegLBwyCiJxA8DCJ6AsHDIKInEDwMInoCwcMgoicQPAwi esKEQhy/xx8iesKEQoI7xx8iegLBwyCiJxA8DCJ6AsHDIKInEDwMInoCwQMQi0xSJ6InECYImh4/ +QX4E9ETCBMOwzDjdi21xrQ5SkRPIHgA/XJTAlwiegLBwyCiJxA8DCJ6AsHDIKInEDwMInoCwcMg oicQPAwiegLBwyCiJxA8DCJ6AsHDIKInEDwMInoCwcMgoicQPAwiegLBwyCiJxA8DCJ6AsHDIKIn EDwMInoCwcMgoicQPAwi+kmKYByTLhLcC/LLmKQYxjHpIsG9IKInEDwMInoCwcMgoicQPAzheF9Q r2Kg7TfAoGUhENHw9qch9CH3HsLEQtM0KIoCy7IAC4ACwLJgAe61ScS4il4jM0DTZ0q6r1cx0KsY iEOE8PYnwidMHIOqzUwunVswrkrTybgv1teLwiVJIoiEFABAKzMMdxiBQHAg4yZ6vYoBw3C3z4dX BeDNa4Lw+8V+AABGz8KgncS3VgLBhRg30VMCin9c0qaDVM2gtENvep/M7gmEcWHc1vQCbwq0NwVG y2LXeRV2nVeZOiGmQAupYY4mEBwPRXG/uclmqBuJcR1ffUKEFiM+ANACQBw87psIBAIAwEso5MXv KYyr6AXeFPxjvEAbhS/wouEf4w3ay7O+dIJrIBQIIKAF8BIKIRQIJro748a4D7EUBVACAAbj/0Tv hImCBQyMASzLTfXNhc+w7OBtvEkCmVcTPBadQQ944G4xsZkTCB4GET2B4GEQ0RMIHgYRPYHgYRDR EwgeBhE9geBhENETCB4GET2B4GEQ0RMIHgYRPYHgYRDREwgeBhE9geBhENETCB4GET2B4GG4rOg9 K4ERgTB+uKTo1b0GyBu10KsmZxIDAmEicUnR6xRcNhOdkoieQHA0Lin6gRRaJJMWgeB4XFP0BALB aRDREwgeBhE9geBhENETCB4GET2B4GEQ0RMIHgYR/TghoMlXTXANSIWbccIwSUskuTI0TYMGBdbM 4YOCFRdvY3krT4GInjBpYRgG5FY7mEkx52TJX5ZAsBm3H+kNOhbKdh0oAQX/aK+J7g6B4PK4/Uhv 0LBgGYDRsWD0JCCXQBgJtxc9gUBRJDTLHojoCW6PQCCY6C64FUT0BLdHr9dPdBfcCrc35BEIY4Gi KNAXO06xACiAYmGxxw+WnRT+FkT0BI+GZVkYDJ7jmAOQ6T2B4HEQ0RMIHgYRPYHgYRDREwgeBhE9 geBhENETCB4GET2B4GEQ0RMIHgYRPYHgYRDREwgeBhE9wamQsFfXg4ie4FRYliQ2cTWI6AkED4OI nkDwMIjoCQQPg4ieQPAwiOgJBA+DiJ5A8DA8QvRk24hAMOERoicQCCY8IjEmRVFgWZZ4hxFcHpqm IRQIQAGA8ffKMAwMDAPGQZl4PUL0AHEHJbgHDMNA6+Q022R6TyB4GET0BIKHQURPIHgYRPQEgodB RE8geBhE9ASCh0FETyB4GET0BIKHQURPIHgYRPQEgodBRE8geBgO971nDSOHsZoiXdlh27OsDedj TO+zDAvWYEMnHQ1FgSK3T4Kb4DDRsyygaNOB0dkeu65Xs+hv1g35vk7JQKe0PfhA0aa3ua2jEYcI 4e1PlE9wfRz2K2V0rF2Cn2zo7bg5EQgTieOm92Z6T40PR5DEd8imBgMDmUKNoAAfqyGver0B/Uqt 8f2RL92v0EAopOEj8hpNz8dEWU0b5EoNyc5DcBucEk8fFxWM+OhgZ5za5aht7oZcqZnobhAINkMW oQSCh0FETyB4GET0BIKHQURPIHgYRPQEgodBRE8geBhE9ASCh0FETyB4GB5T7ILgOkSECZGaLEZX tx7lVeqJ7o7HQUZ6wriTkSqGxJ9GUoI3/P3IT3C8Id84Ydzp7uGiITUaFkoVCVQab8j0njDulJSr 0diig1zBwMll2whWIKInTAiy/onIdkIAyPSeQPA4iOgJBA+DiJ5A8DCI6AkED4OInkDwMIjoCQQP g4ieQPAwiOgJBA+DiJ5A8DCI6AkED4N3wzVoWWhko3eNZPSmYg8NrT2QylVj65mboFJrAQCsAWP6 /ggEZ2JefcpC9AatY3601Y1dDjmPO8HoWWj6iOgJrg+Z3hMIHgY/0s9LDceG7IQxn1CjM8DTyroJ BRSEAnL/JLguu3NqUVjTDcBM9EIBDR/vsUfaOuIcBALBsZgPSmR4IhA8DCJ6AsHDIKInEDwMInoC wcPgrW4KtQ4tPYqJ7AuBYEGgrwh+4pENw90yNTR64iMxHEqNnn9MTZ2zzsM22AjugoCmsGNLFkID xEO2+fFMPY4Vt45jr9wfMr0nuCwGhkVVs3TYNhca+8apN5MHfu60ZFYGtl62bCL7QiAAAHpk/fjr u1/YdUxqUhQ2r892Uo/cnx8P5KH4QiMAM9HHR4djw/L5E9YpAmGA5o5uu0UfGhyAFYszndQj9ye3 sGaw6AmEyUhJRRPyi2pBgQIAUBT3D6CM/wChkEZMZBBo2rbVLkVTiI8JQ0xUsHM67WSI6AmTkoLi Orz/+WFU17Y77RoxkcHYdPl8bLp8ntOu4QwmnegVTU1oO3IEepUKFE2Domnu1u5pUUBuTL9ShXVq Ljw7sdIAoaYP+swkwNvLpuOr6trw1D+/glanH7nxGGhp78XbH+9Hv0KFmza7jz1sUom+dtcuXHjn HbAGsmfr7lwx8KCqG6iqgqC4Atota8GKRcMexzAs/v76d9Dq9KBpCjddeyX8/HxQVl6LE2fyoTfu 59920zVYs2J0hj+DwYBzBaX4ZNeP6O7pw6dfH0dyYiQWzU0d1fnGm0kjekVTExH8JIbu6IH3V/s4 4fsMLfyWth60tPUCAO7afi0e/uOt/Hunc4twx/1PQaFQoa6hGYvmzxp1f5Zmz8Hlq5fgmpsfgEar xYkz5UT0403roUO84Oc//zzCs7MBhgHLMGRq72a0dPZg7b1PAgCuyk7AktoKCCrrQXf2wPurX6C5 cQMwRP6C6nrTGt7AMNj90yHQFA1aQIOmKExLS8LZ/BKcyi2CXq+HUCiEgWFwNq8YGq3Opv7RFIU5 szKQkToVs2em43RuEcoqm8f+wceJSSN6g1rNPw7PzgZFUYBAAEogmMBeEUYD5eUFndGybhAIoF2/ At4/HeGE39ULuqkNTEKM1WMbW7r5x+9+/PWQ11AqVSgsrsC82dPwh4efxy+HTtjVx4VzZ+Dz917A /NnTcTq3CC1tvZDJVZD4+9h1nolgUnrksXrnGnAI4wxNQT9vOv+UGubvOz1tCry8bLvRt7R3AuDW 6PYyMHlMmBLNvyaVKe0+z0QwaUZ6C8h03mOZMzMRO9/4A/pkSoBhwLAAwzJgGYBlWTS2dOPF/9tj ccyrz/8vissqwTC2/W4EAhpzZmY4o/vjwuQUPcGjkfj7DDnNpmlq0Gssw6Ctoxsajdam89M0jbiY KERFhI6pnxMFET3B47nzgWdw8myhXcdMz0jGns9ed1KPnMukXNMTCPYQHRlm9zFxMVFO6Mn4MKaR /tvDp/DT8XMwMIyj+jNqFE1NUPrFAQB2PfcWKCvTOFugKRpXLp+Pa1YtcmT3CC7MP568H3+44wYY GNsMekKBAAlTrO8eOBqpTImzhdWob+yCSq2FWqODRqODWsM9DvDzQXRUMGIiuX/RUUGICA20uozh +z/azsiVajz6+scuIXgeoR/3f2HZmE5zpqQC65fOg8hGt0+Ce9PdK8Wh42egtXFNT9E01qzIRnLi FKf0p76pE6fzqnA6rwoXqlrA2mmYlvj7YP2aOdhw2VyEBPkPen/UoldptLzggyT+CHCD/cmRkPYr IOtXQqXRQqPTEdF7CL9/6Dnk2TlQ7PpuHw5882+H9kOvN+CVd3/GoePFg96jKEAkpE3/vAQQCWko NHq0y7RgzG4MMrkKn+/OwVc/nMbKxdOwdZPlrNUhhrzLV87HmuXuFWlkje/35WDP/pMT3Q3CODN3 VqZdoqcoCovmjd6F1xoMw+KJF3ahoKSOfy02WIzsqUFYODUI02L8IRhiyq43sGiTadDUq0ZzrxrH KntQ2a6AXm/AgWNFOHq6DDPSTbMSl7TeMwyLC1UNNrtFjoUAPx8kJ8YaY6wJnshjD9yB++++CXqD bUtVAU3Dz8+xM9vc8zW84NOj/LBjbRLigofODWiOUEAhLljMt98yLwpFzf34JrcNZ2v7oNXqLW4m Lin6dz7Zg7yiynG73q3XX4El86eP3JAwKamsrsfn3+6FRmPbIEPRFLZsXIPZM9Id1oezBdUAOL/+ JzamIsh3bEvLmbEBmBkbgINlXXh5f62F45FLir6+yXmJD6xRU99CRO/BPPTUyzhfUmHXMUdzcnFk z38c1ocBYx1NAWIb3Yht4dLMMAhpGi/urcaA7F1S9AMszZ6DHb+/2Wnnv/l3j0OpVDnt/AT3YN2a ZWhoaoXBxum9UCDANVeudmgfZmbG48cD+dAzLJ74rgIbZkVgXkIg/ESDbwCd/VpUdShQ2aFEUw/3 +xXQFNZOD8eceMmg9ivSQ/BdQTvK2+Rc/x3acwcTHBjgVB9ngY050QiTm7tvuRZ333LthPZhyYJ0 ZKbGoqyyGSXN/Shp7oeAppAc7gsA0OgZqHUM5Bo9FBrr/gTHKnrwwtZMTIsZvE0XGyRyD9ETCOPB uYISfPz5Hmi0NvreUzS2Xr0Wq5cvdFgfhAIazzy8Fa+9txen8iqh0xlgYFhUtA9fdSo6PAheQgGa O3phMDB4/1gjXrp+cFZgysxSTURP8Hie+sdbKC2vseuY86WVWP2z40QPAH6+Yjz6x6uh0epwOq8K f3/9OwBATEQQMhKj4SPygp+vCKnxkZiWHIPpyTGQGHcRHn55F77afw41nVx4r97AokuuRaRENGhn ioie4PHceuPV+PdHX9nsXSoQCLD9ug1O64/I2wvBgX7883u3rcaa7GnDHhPgy23XsWChN7C4Z2cR WqUaBIiFyJoSgC65aWfCLUTf9ssvyL3/frB6PSjhKLvMsmD0enhJJFh76hRob2/HdpLgtmzZuAZb Nq6Z6G5Y0NzWwz9+/LVv8Di+sdruxR3XYcsaS8e4sjY5WqUaAEC/Wo/jlb0W77uF6Ot37QJjXG+x Nq67hkInlaL98GFEX365I7pGmAT8cjgHH372nV3x9Ns2X4FrN13mtD7ZmtCjrKYFgKXoCxpk/OOw IB/09WssHI/cQvT+SUnoOHyYf06LRIhctQo+USOEN7IsunNzIS229GX2DgpyRjcJbspr73yGsgr7 1vQt7Z1OFb05d1+7EoHG2Jb3vz2KbqkCsRHBuHfbaly1ao5FW5YF8hq4op++Yi/Mz4jkXitvR2cf t73nFqKnL5rSMxoN2g8cwMynn0b8tm1Wj9H29SH3vvt4wQvEYovkmYSRUWm0KKttREl1IyoamkFT NBZMT8HyOdMQ6O838gnchIfu+y3e2/mNzbnyhEIhbth8xcgNR0l7pxR79uXyz2+8MhtqjQ6JMWE4 lleBk+erodJose0KkyExNoIbyPQMi0qjxT8skFvnUxQs8ga6luh1uhHz1mc99xyKnnwSjF6Pwscf R2dODua+/LJF1ltpaSlObd8ObS+3lvGbOhXJd9yB848/7tTuTxYMDIN3vv4Fb+36CeqL4h8+23sE NEVh6exMPHfvzYgOc896buasXDofK5e6RvHW8qoWPP3SV1yOPwDrls3Evc99guKqZgiFAr5Yx+JZ yRbH3XjlIuzafw7ldW18isjQQFN8gE5v0tWEip7t6YGhtBRMTQ33r7UVYFmwAckAbb1r8du2wW/q VJy85RawOh1afvwRerkc8157DUJ/fzTt3o3zjz0Gg4YzZASkpmLprl3ozc8fz4/mttS3dmLHv97H +co6i9d9fbzBGFiotTowLItj+aW4asdzeHnH7Vg6272rxTZ88QUq3nwTjPE3MxIUTWPqrbci5a67 HNoPuUKNJ1/cBZmcm4bfuD4bT//uamz505sAwAs+KjQQO7Zb2qTE3l5YvTAT5XVtXB8pIERiCtjR aCda9DoddD/9BN0vvwBW0xkPb8RQt7WB1ZlGoI4jR3D82msRsmAB6j/7zKKtsqkJOqnUEb2e9ChU atzyxMto7uQsx/HRobj/psuQlT4FiTGh0OkNyCmsxpe/nMXeE0Xolclx+zOv48On/weLZjou+GS8 qf3kE6ia7StWUbdzp8NF/+nXx3nBP/zbdbjnupUAgA+euR37T5Yg70I9EqPDsH3TEviKLXefDAyD /Av1/PNAPxG8hCaPU41uAkXP9vdD8+KLYNraTC96eYFOSACdmAjKzw84VQ2orUc8aXt6UPzMM9xh gYGQZGSg+/Rp9FdWor+Si8wT+voi6bbbUPHGGzCoVDj/2GNIuuMOp382d+e593fxgr969Rw8e+9m +PqYflzeXkKsnJ+OlfPT8dlPp/H0299BpzfgL299ih9ffQLeXrb9nC7UNUHs7Y3EmAinfA57mfXM M2j44gubS6JRQiHirr7aoX1gWRb7jpwHAMyblsgLHgCCJb647vIFuO7yBUMe/8Z/D+LUeZMxMjTQ NMobGBbaCRO9RgPNa6/xgqdjYuC1dSsEmZmAmR88VfjukKIvfvppaPv6AAAznngCsRs3ovivf0Xd zp0AAL/ERCx45x0EpKRA2dyMpm+/ReeJEwhIS3Pyh3NvzpRUYNcBrsrLnIx4vLjjumFjE25cnw2p XIkXP9yLupYOvPftPvz+uvUjXqesthGbH/w7vL2EOPLu3xAUMPEGweA5cxA8Z87IDZ1Ic1svVGpu y1CmUOG+5z+FyNsLqxdmYP3ykRN2/HxRth3z9Xxfv9qiFMS4il67cyeYem4KIli4EKLbbrMQuy00 //ADACBixQr+bjvzqacQvmwZZGVlmHrLLfCScJFGM/78Z3QeOwZNVxfqP//cgZ9k8rH/FJcCWigU 4F8PbrMpGOnOzZfg24N5qGrswLe/nrJJ9C2dvdAbDNAbDKhtacec9KQx932sVL3zDspfeYX3BRkR isLU7dsx44knHNYH8+o4lfXtqDTW5PvxWCGWzU3l3W2todMbUNPcyT8X0BSCAkTG9xgUVXdbtB+3 MDO2sxP6s2e5TmVkQHTrrXYLfgChnx9mPfecxWtRa9Yg7b77eMEDgFdQEGY+/TQAwKAiIbTDUVRV BwBIi49EQoxtRRyEQgHWLOLcQ+tbO6FUj2wIM0/55CpJVVv37rVd8ADAshZ+I44gPTkaa5bPREJc OGKjQ/ibrkarh0w+/FZzVUMHb+QDgGCJGLTR4b68oQdqraXdbNxGet3hw3y5Ka/rrwfGUFgy8+GH 4RMdPXJDANFXXIHoK65A6969o77eZMfAMCitaQTA7ef+Z/fxQW0oClg+Nw0pUyzX4emJnIMUy7Io r28eceQWmP3dbY1fdzZzXnwRTd99Z9eaPubKKx3aB6FQgB33cOfMLazBX174kn+vobUbcZFDb40O WOwHCPDl7DAKlQ5NHVw4bViQP7r6xjO0Vq+H4QS3XqTT0kDHxtp1uLqjw+J50ZNPoujJJ0fdHYPS PQoNjhdKtQYqowtqYXkjCssbrbYLC/LHqU//zI8iADAlKoR/3N3XP+K1XHGk909JQfLtt4PR2ZiT kaYhCgkZud0oUCjVePW9ny1eKyhvwJLZKUMeU1bbYvG8tkWK5k45xN6mG+yM1Dj8evYCgHESPdPZ CdY4vRYutD8ccdRBNkOdTyRy6PncHVvzqs9IibUQPGAZp82OsNUKcH7rAzAuIvqS555DzQcf2FX4 NObKKzHvtdcc3pe3PjqArh7u5unjRUGlY3HwdBl+d90qi+/anHNmSS8H0OoMvMU+WOKHEInJYDou omd7TBFDVHi43cfPfOopGFQq0EIhxJGRo+6Hor4eAWlpCF+yZNTnmIzIlaY1473Xr8b2Tdz3s+dI AZ79N2c4/eivt2P5vLHvgJgbCF1lpO8rKrK70nF/ebnD+1Fc3sjnvF8wxRtTggT4pkiF/AsN+HhP Dm7ZtNTqcRX1ppySb/9lOxpau5FTUIUzxbVQqrXYunY+uo1Te2C8RN9tsh7So5gWCcRizHv1VUd2 iWCkqrEVdz77Jv88PCQAH+/JQViQP0qqTNPGwABfh1zPcqR3jZLi8159Fa2//GLzmp4WChHlhCjN 0nKTg9DiBG9cn+WD47UadMgZvPDBz/D3FQ8Ko+2VKaBQcQbU2IhgrF3MJXi9Y/Ml0OsNkCnUCAn0 w4MvfcEfMz6i7zXF81JOWgsR7Od8ZR1uefIVfqRfu3g66lu68MF3JyzaJcaEYWaqfXaYobAY6V3E kCeOjIQqe5kd6bIoRDshUnNaGld/gWWB147L8XGuEpH+NDrkDFQaHR7615fYf7IE112+ANOSYhAS 6IfvDhfwx8sUKjz99ve4af0ipMRHQCgUIMSYjKNHZkq7NT6iH4huEwoBL1IqyhUwGBg89sZOXvC/ v341/rR9Lc6W1OH7I4X8dHBWWhxeeGDrkOtJezEvrOgqa/o//eWf+PbHQ3Yds3zxXHz05rMO7UdC XDjEIi+ojI5pfSoGfSrL72jfyRLsO1kCgLOnmNtj+hVqfPT9CXz0/QmIvb2QmhCJyxZPx43rstHR bTKyulaUHWHc2HXgBMrruenkfTdcigduXgsAWDhjKk5/+mcUVTQB4ETvKMEDrrmm7+rps/uYPunI OxX2svOro7zgQyR+0OkN0Gj10FqNTxlsgPUSCvhoOrVWh6LKJhRVNuFfH//iPokx886X4Y+P/N1p 51fZ4ExiD339CrBgERwwOAWxq3G8oBQAIPHzwe2bl4NhWd4yT1MUstKdU5HVYp/eRdb0r//9UZzN L7Y9771QgMULshzah/qmLvx0kIsETYqNwGO3bsKATDVaHZ7697fo6JMhOMAXaxfNQmtXHzr7+lFW y924I0IkeOauLahsaENpbTNKapvR2NbN76eY3yBcUvQD1WJb2jrR0tY5QuuxIxzlliDLsjhTUonj BaU4ll+KstpGiEUifPn8g0hPjHNwLx3LwCgvU6gwe+tTALiQza/+9XvEhDsvs5DABaf3vj4iCIVC GAy2rekZhoFWq4OP2HFbv//eeQAMw4ICcOPli2E+txJ5e2FJVip2H8lFb78SqVMisTZ7Bt7YdYBv kxwbAS+hANOSYjEtKRbXAuhXqlFW24yjBeUWe/kuKfqNly3Gd7/kQDfEtMaRBAcGYNnCGaM69vE3 P+GDVAZQqtT4Yt9xPHGX9Yw+roK/z+DiiG3dUvx07Dzu2HzJqM5pizXeFaf3v3vwORw8etquY+bO ysRXH77kkOufyq1EfnEdAGBJVhqmxgze1s6enozdR7hsOmdKqkFTFAorG/j3U+IGb2UH+IqxcHoy iqqbLF53SdHPz0rH/CzXj88uNEs0ERLoC5VaB5VGh5zCCxPXKRt545F78POJXKiM3njvfrsPAGcM sge1WdHHHS+9h82rl+COa9YiIdq6P4YrOueIRPZnRh7NMdbQ6w1499ODALhEGFtWWQ+fjQiRYGpM OGpbOnGmtAbFNc0W31/KFOv+K3qDAfnl9RavuaTo3YWF01JQUd8MiqJw+dJpOF/RjJKqVlQ3t6Gt qxdRLpxKKjY8BHdcbUrs+N2R0+jokaKsttWu83DZWDm0egM+33cMX+4/jhvXrcCfb78OAoFlUJX5 c1cZ6V/6659w1/YtNvdHKBBgesbQbrH2sHvvWbS2c4bEDcvn8AkwrZE9Ixm1LZ3o61eir9/kSi72 9kJsuPXfWlF1E+9iPQAR/RhYOnsaPvn5CFiWRVuXDDHhgSip4kRzorAMWy51H8+/WamJOHC6ECXV LSM3NmOgvZe3F6ZMnYKa8howLItPfvoVTe1deO3hu+BjNiq6onOORqNDRXU9NFrbfO9pmkJwkARx MaP3DgWAPqkC//02BwA3kl82wjJz4bQkfLH/NG+UE9AUDAyLpNiIIXdYzpZwiTVoigJjPI6Ifgxk z0yDgKZhYBi0dEqxYHo8/9wW0Vc3t+HIuWKsWzoX0WET67SUlToVB04XorWzD98dzh+UWtkatc1d 2HuiCACQmJqI23bchoaaBnzz4Tdob27Hr7nF2PGv9/HWo7/jj3HFgJu7dzyD07lFdh2TlpKAvV++ NabrfvjFET5xxvVrsiEUDB9qHujvi2CJH3qknA/FwO5HSpz1DERavR4FxnV/sMQP3VJSwHLMBPj6 YFZqIvLLa9DaIYVgFo2IEH+0dsmQU3gBLMtavQPLFCq88fkP+PinX2EwGJBbVo03H7l7Aj6BiS2X LsZ7u/dBKlfiif/bjQUzpg5rxdfrDdjxz8+hMq7pl61dBgCIT4rHPY/cg49e+wh1lXU4cLoQ3x85 g00ruEArVzTkJSXE2S36IIkEL7z+IYrLKvnXvvz+JAL8xGBZFg3NPRB5CxEZEWj1eIOBwf6j3DWn J8VidlqCTdedGh3Oi36AZCtGPAA4X9nIz17CggJcW/R9UjmOny0eNN2S9iugUmkQFeGcUbGq1r7k iACwbHYm8strIFOoIVdqEB0RiNYuGbql/aiob7bYujMwDL7YdxyvfPY9emXcH4CiKKycP7rdA0cS HhyIJ+7chj+9/B/0K9S4+n9exwsPbMXKBYNLhdc0deKBFz9HUSVnFV4ibWeKAAAgAElEQVRwyQKk zTAF44h9xbjp9zfh5b+8DKVcib/9ZxfWL5sHoUDgkoa8Zx//A+678wbobfC9b+/swQOPv4AzeUU4 k2d5ozh4rHiIo4aGpmncsHaxze23r1+K/PI6fqpOURSShxjpz5ZyU3uRlxDBZrETLin6t3fuQXX9 MGvLEuf3wZYfAAAsnZ2J17/4EQDQ2ilFTHgg8sDFox8vvGAh+r/836cWW3xz0pPw59u3YlbaVAf2 fPRsWrEQn/z8K/Iv1KCrT47bnvwAi7OSkZU2BakJkWjp6ENxdTOOnivnR/iI6Ahcef3ghBL+En+s vWYtdu/cjW5pP47ll2LV/JkWU1hXGembWzvw9Z4DNpW1Onz8LJpauKg2mqIgFA5OBqM3GHh7Bfd5 ra+3fUReuHb1QkSH2e4X4e8rxuy0BOSV1wEAYsKCLGwmA2h0epyv5H6HWWkJaO02ZYR2SdH3yeQj N3IyF1s8h2J22lT4+YigUGnQ0ilDSnwERN5CaLR65BSW4farTIURq5u5DCdRYcF4ePtmbFg+36Eu rmPFYGDQ1Wusg0YBYIGThdU4WVhttX32imysv349vIfYvsrKzsIP//0Ber0ee46exar5My1GelcJ uPmfR/+B/CL7tlnnZMTjw7/ejgC/wf4OD770Jb45yO2pP3XXZkSHOtbZaf60qbzoh5raF1bU8+67 ybHh/KgPuKjoB0iMDcWK+dzWiFypwdf7uYiiRVlTkZ7o+PTJBReaUFhu3xRfIBAge0Y6Dp09j9ZO 7m4aHSZBXUsPzpZUQqc3wMs4Grz1yD04V1aF5XOmW707TzS7fz2FxvYuAMCq9asg7ZWioboB3R3d vMU4IDAAcYlxWHzpYqROTx32fGIfMdJmpqE0vxQHzhRCrdW55Jp+8cIsFJaU27WbUNnQgTe/OISI EAkoCpibkeA01+WLCfQzTdWHMuKdMYpcLPLC0fwK13fDdTeWZGXg0Nnz0Gj16JEqEB0RiLqWHqg0 WuRdqEa2cb0bEhiAtYssreI6vQF5F6ohV6pw6ULH+nPby3dHOK80f4k/Vm9cDaExj71GrUFnWycC gwMREBhg1zmnz52O0vxSqNQa1DS1ISnOVHTUVdb0D957Cx689xab2v64/xju+9/nIVeq8e+vjvCv +/p44/iHjyLIQXkHhqOu1eSabs0pR6XRoaiKs7eESvz5WgYDENE7gKWzp/GPWzulSIw1ZZM9UVjG i36AivpmHM0vRU7hBZwrreSXEn+/b/uE7e33K1U4W1IFAMjIyuAFDwAisQhxo4wlCDfzzGto60Rq vCmhqasE3JRcqMZ/v/7Z5nj6hXNnoLtXipq6Jn4EVaq0aOnsG5Poe2QKvP7lPggFAjx083p4DxET UtXE2RT8fcWIDBm8O1BQUc/bpFq6BkcQuqToB3zuWzuk+OkoZ7UzX//ZmdnI6aTERSEqNAht3X1o 6ZRiRmoMAvzE6FeocbygDDtuuopv+/XBHDz6xs5BYZFiby/ERYaNd9d5juSW8D+UzKxM9Ev70VDd gIysDIvIOHsRi01rXpVGa7mmd5GR/tFnXkXxhSq7jomNjsD5o1/hyRf+D9/sOTjmPsgUKvzzk5/Q 3sMtEctqW5CVGm+1bXUTlyg2OXaIqX0JZ4MZiLcXCGgL/bik6FXG9D8anR6dvYONetJ+18tmu3T2 NHx9MAcd3XIYDAxiIgJRXqtGSXU9pHIlAv25EaC1u48XfHiQBEtnZ2Lp7GlYOjsT4UGS4S7hVA6d 5UoqCYVCJGcm4+3n30ZbUxsuWXcJ1l27btTnNb+5URRlsaZ3len9lk1r0NndCwNjY6lqgQA3bF4H Pz8fiB2QZFWh0uClT3/mBQ8M7a3Y0SuDTMElmbUWZKNUa1BSw9mlBr775bPT8Wtuman/Y+6xE/D1 EUHar4RY5IWgAM4X2WBg+BtAgP9gi+lEszQrE18fzIGBYdDe3Y/ocAnKa9vBMCxOFZXj8sXcWv7e reuQkRCLhKhwpCbETHCvTZwo4H4USRlJKM0vRVsTt9Pg4zu0L7gtmGfINY/XZ1jWZaz3t2zbhFu2 bRrzeTq6ZZD4+dhU9GMAtVaHl/+7F00dPSM3hmmUB2B1fz7vQr3FDCozMQYLMqe6vugH4tujwiRW rfe2lFwabxbPyuCnUy2dUsxKi+Wf5xSW8aKnKAprsifWYHcxdS0d6JFxmWBSMlNw4DsuTtvXzxeL Vi0a07lZxnyk5/4XCARg9HqX8b0/fiofO7/cA43Gdt/7rVetxbo1yyxev+3JDwa1feW/vwzrXqvS aCE1VqqNjQ5Bc+vw4heLTOnm3v7mEKYnxWJmyhRMT4qDv48IZ0pN26vBEj/cvXk1Wjp7Lc7hkqJ3 R9q6e5EQHY66lg60dkoxf3o8QoP80NUrx/GCskHt+/oVfCKLASgA6Ylx/FJgvMi7YPqhyOVy9Bit vSvWrYDYSty9PVw8vQc4/3sdXGdN//wr76OsombkhmZcqKrDujXLEBk+vHdolw0FQAAga3oCbrhm KR559rPh26VMQUJUGOrbuiBTqHCyqAoni6pAURSmxoSjrpXbcqUpCvdeuwYBvoP/fjaJvqiqHj8e Owe92ZpHbea8YkuRg9HAguV/GK7yA7mYvn4Fnnj7M/x8Ipd/rUeqhFqjQ0x4ILp65Who60RTRzfi Ijirfq9MjtV3/xly1eDY9eTYKPzw2l8gHIPxzF7OlXJGLC9vL+Sf5FI2SYIkWHyp7e6hQ2L20xgQ /YAxz1XW9Pfefj3e/nCXXemyfrOV80KMjjTtTty4eRmCg/y42d3ZclCgIBKNnAg2cUo4rtu0GHWN I2eJomkaj9yyAV8eOIPDuaX86yzLoqbZNPVftyTLajIOwAbRMyyL3z75KmSKoY1nre22rUdsRW2M PKpv7kF98+Bzm9fanmgee2Mn9p/mlh1isRfUxsSGrZ0yxEQE4nwFN5qfKCjD9cagFI1Wh6F+XiqN ZlwFDwDnyjjRB4cFo6OF++Gs2rAKXt5jz1xsfaTnRO8qN/L1ly3H+suWj/k8KxZnYoqx+OeGNXPH fL6h8PYSYlpSLC/6bWsXoaNXhjMlNZAr1ZiRPAWbV80f8vgRRa/T6XnB0zRlseUyUClT4uAa4yOl yVLbuPZyNs0d3ThwhivxPC8zGU/fcxM2P/g3aHV6tHRKsThrKoQCGnoDg5xCk+ijwoLx3UuPoeGi /H80RWFuZvK4foZemRy1zdy+r84Y4CT2EWPe0nnDHWYzVg15LiZ6dycpNgKXLZyBmy5fYuEBOhR2 renXrliALeu5O6K0X4EHn3kbAOBnZd0wFnx9faCV9iNI4ovEGG7NpNXpUVrNWZQlLmK9b+3q4Uey m9evQnpCDOZmJONUUTlaO6WgaQpRYRI0tffh5HnOzXMg73tiTAQSYxzvSmwvuWWm9XxvF2fwmbN4 jkNGeeBiQ57lSO8qhrzJxEiCB1zUkDeQaCEowAdZ6VxlFblSw4veVSioqOUfF1bW4Mrl87E0KxOn isqhUGkhlasRHR6IpvY+9PbLUVbbiOnJ1h0uJorcssFOKQtX2F9kdCjMR3pe9ALu//Ea6X86WID3 PzvEJ6wY4H8e/Qf+59F/OOw6dz/0Lv/YR+yNh36/EYvmDR+fMBG43t6XG7HvlKmkUI3RNXLZ7Ez+ tdZOKWLMkigcLxxsxZ9o8suN6ZSMo298cjyizPzjx4rlmh4W1xovQ96efecGCd7ZqNRa7D1caNcx sn4V/9i8EtBYufhcLjnSuwMlNQ3Iv2Da5jlXVg2DgcG0pHgEBfihr1+Blg4pMqZGwkfMlSo6UVCG uzc7vvDhWKg2OuEMCDB7ZbZjL2A2g6cpTuyjMuSZ2ZIE5bUwJE0x3UVGYMAqHx4aiFnTHGszYWAa OQcen84rg1yhgsHGnAwDHDzGJeUQCgRWve1GS3JsBLyFQj7Uloh+FLAsize//AkA+IKDCpUaBRW1 mJeZjMWzMvDziVy0dcnAsixiwgNR3diFvLJqaHQ6iCaonp9aq0NZbSOaO7rR3tOHhrZO9PWbChuK fcWYOX+mQ69pbaQXjGKkZyJCwIYEguqRQlBeB2+KhvaKZSMfaEZsVDi2bVpl1zHDUVRegzf+sxv+ vr5Yf+lCfPH9r4iNCkNwoD/kCtXIJzCjT6bEyXMVAIB5GYnw83FcIQ2aphERIuG9/ojo7YRlWTzx 1mfYb5zaL52VyU/bcwrLMC8zGUuzMvHziVzo9AZ09soRbRS9RqfDuZIqLDVbAjiTjh4pcsuqkHeh BnkXqlFa0zhsRqB5S+Y5zIA3gLnoaX5NPzDS22HIoyhotqyFaNdeUH39EFyogTcACvaF+jqS6rpW MAwLuUKJytpmsCyLrm4pwsOs58UbjgNHz0NvnJFcMmdwirKxEklEP3r++u4X+HzfMQBAfGQYnv/j Lbj+kRfQ0tmDE4VluG/bBizJMv3RWjqkSE80TdVyCsucKvoLdU04cLoQ+08XoLSmcdi2NE0jIDAA kmAJElMTsXbzWof3xyKacIxbdqy/LzRbr7AQ/lV+wXhfODG7IFdfvhQqtQZzpiUjLTkBH4t+waXL 5+KDz3+26zwsC+w9xK3/I0MCkZ7IhR/3K1ToMPPo8/cRIzJk+KAsvcGAhrZu/rmApjElKpQvFQcQ 0dtMXlk13v56Lw6f49ZdseEh2PncnxAVGoQlWRn46kAOCipqoVCpMSUyDPFR4Who60RrpwyzM+IQ JPFBn0yF44VleGiMfenokaKhvRNN7d2QyRXQMwyO5Bajor4FXX2yQe1pmkZUXBTik+MRnxyP8Khw SIIlCAgMcH66Los1/UXOOXaueYHBwp+h6MWfBCoICnrQ/ESd1WP0Xc4rj3bDVav5x7+9bnT2mvOl 9Whp57ZLl89JBwWgrrULf/9wD3Rm3xFNUXjo5iuRFm/d0MoCePytrwa5/l6xeJbF81GL3txrzBUD YMZKVUMr6ls60NLViy9+OWaxPRcdFoKdz+5AjLGCzdKsafjqQA4MBganiyuwesEsLJudic/2dqKz Vw6d3oCY8ED0yVQoq21Cr0yOYIl9lW3rWzvx/ZHT+P7oGdS1dIzYPjwqHNPnTkfq9FTETY0bMo+d sxnK9x4YfRKNi4UfZ1ADPWooe6y7sTIBUwHa9dKTDfDzIVMg2dJZ3BafWquD/qKZEAsMW5BDp9Nb Xb4NlK8eYNSi9/MV47Ll81Bd34JZmUmjPY3Lcsdf3xj0moCmcfniOXj4t1sQaxZosSQrnY+oO1FQ htULZmHp7Ex8tvcoWJbFwdMVkBq3Y1iWxdmyKqzNnm1zXz7ccxDPvb9rxHaSIAkWrVqE6fOmIyJ6 4h1/AOdt2Q0Iv+bT/QjUqODnI0JkuPW1NCUVAq7juW2BVKZEjtGANzstARI/LpQ5IyEaj/52Ix+B BwARwQGIGyb9u7eXEI/9dhMa2rv5GZaPyBvpidH4z/em1F5jmt5ft2kl1Ho9xKMs9ewu+PmIcN2a Zdi+cTUfNGNOiCQAGYlxKKttxAmjUW/RzAy+2k17l2nK7SPyxpQI2zPkGAwMXtq5m3+eGheKKxen IT0+FPGRgQiR+GLtjo/Rr9QgMS0RqzY4zjrtCKwa8hzkhsv6++KbsER0SlVYNC8VT+zYYrWd14P/ BkYIWZ0oDhwr4t3ZL5ljWbR1qMw4wxEa6I/QwOFnkWNS610PvwwWDK5dtwKXD+Pg74785Y7rkRgT gSB/X6RMiYbvCCGmS2dnoqy2EdVNbWjv7kNkaBA2XrIAu389DV+xCAumpWBxViYuXTALiTERUKk1 OF5YBj8fMWamJCBgiGQVlY0tUBundBuXpuPR3yxHVIjlH/Xi6ZsrwWJoQ56rRNlNJANT+9BAf0xP ih3VOexdJI1a9Ho9wLLcH620um7Sif7S7FmIDR88qg/FsqxMvGcs93yisAybVy/G8/dtxz1b1yEh KnxQ5NzT736Brw9yxQspikJidARmpSZiVmoCZqYmInPqFIi9vSyO23OiHHtOlGNKhATzM2KxICMW c9OioXGhqMOLMfe9HxjpB5JKGAye7Xt/vqwBLW1GA97sdLuMquaptU4WViLFjlnB6A15QmDVstko K2/Afb+9erSnGZamtl4+Ww5jNk3ML2tEcaV91VVtQasbvZV33rQUiLy9oNHqeNELBQIkx1q3tB4+ ayqJxLIsalvaUdvSzqehFghopMXHYlZqAi5dmIVfzxXx0+HGDhkaO2T49qilW29dZR0+fv1jgDWO sCx37oEp9sDji59bbW98jX/MsvzzsIgwXHfHdRYZc23BVePpJ4qfD3K5C2iKwrLZaSO0NlHR0Ibd v57jn/+aV4aUKZFYPNO28tljmt4fPs4JctcPR3HD1atHaG07gRI/dPfKoDcwkCsH5xvTaPXQaJ23 DQPAbq85sbcX5mUkI+f8BeQUDl8tpaapjU9PlTwlDL4+3ujqVaC7T87nCjAYGJTVNqKs1rTX7u0l RGggV1yhq68fWp2lJVfWK4Osd/CWnaNpbWjF/OXzLerXDYW1kd7V4uknAlm/ijfgiUVe+ObwuRGO MFFY2cA78lA0BZZh8eEPx1A6TC3GqsZ2/vEYpvcm0cnljs1Oe+PVl+LQiXzoLhp5e6VyqDVaRIUH O2V/ubm9Cy1GxwZvO0cxgFvX55y/gK4+Gcrrm5GeYH2Nds4ssi1jaiTCgk1rdJlcja5eObr6FOjq laNHquTFodXp0dplaZASe3vB28sLDMMgPDgQAgENiqJAYSDQguKeU9xIS1MU/92V1DTAYGDgL/FH aEQo9zoFUMZjQJlGZ4qi+H9RcVGYamP9PWtbdiSeHqisbYPOeINXqrXIOV85whGDCQgJhMBLiL6O bugNBpvPMYbpvRBXXpqNgpJq3PmbDaM9jVUS4iJx6/VXOPSctvD9vhy0tJ206xipXIEWY065GLNt vG8OncTVZsErAuNUXyCg+fRUnLAo9Egtb5pBEl8ESXyREh8OhmXRK1Oiq1eO7l4FevuVFnHoaq2O N/Rt37AKD5jl2B+JlXc+hubOHiSlJ+GGe26w63PbitXQWuM+vSdP71OnRmHOzETUNlj6FhgMDPqN 23QUTVuNKaIoCj4SP/hIuOQ1gWHBkPf1g7XyfbIsazHbAsY4vf/xILf+fPeTHxwufHegtKYRNzz2 T6spj//z3QH8x5hVdoBNKxbipQdu4xNRsiyLH4/YX954KOpbR86xZo6/ccdAbSVXn6Owmg2XHoXv /QhotDq0d0qtvjcwFdbqdOgeh+XPwBacRqvn+xQo8bXIZCsJ8MFzj2wbdGxNfTv+8BiXVTcgNBBi v5FTkIv8fCAaop1SpoC8x/J7ccj03n+cs7e6Cr0yuV05zrul3Do+PDjQboHaQsqU6JEbmREWLEF5 fTM62xzfF2sMhNY60pCnNk6R84vqcOv9bw3btrSiHo/87d1h2ziS4guNfJ9E3l54/W+3Ii56+Oy5 48GYpvdrV85HYUm1Q414rsyFuiY8+96X6Og13Tmjw4It16YsoDMYIBQILKZmFEWhuaMba+99EizL IjIkyKFZhAU0je+PnsH3R88M2y5E4o+/33cLEmMiMDstCScKytDb1QtZrwySYMdX2BkutNYRa3pX SpI6HBqtDqdyK3DthrHVEXAEY5re7zNuG7zy7te4/07r3lBjobtXhtN5ZQAFZM/JROgQP0q5QoWT uVxl1Hkz0xAbbd3jTaPR4UxBGbp6ZZiRnojUqfYVZfzg+4M4XVxh9+dwJWqb2/H5L8fwyK1bMN8s oURdVR1mLZg1zJGjw7ohz/HpsoIlItx6dbrV91QaPWqa+se1oo7IW4CU+EDo9Qze/Jyrx+gqJowx Te8H/M1Tkxxfnunz7w/j0PF8/keze+8JrF42Z1AShIPH8/DVj0f5ddSe/ScxZ0YK7rppA4RmSQLz iirxwRd7+Xz9Px08jalTovDH2zfD34Z1E2AKdhB5C7BguvWc4q7MycJ2GBgWCjW3hp+TnsS7CtdX 1o+b6AccjhxpyPPzEeLSha5TJmwAhUrPi95VGNP0/t8v7IBarYdY7Fjf+/LqRhw8lmfxGsuyOHgs D/NmpvIjdK+0H1/uOTLox5NfXIWTuSVYns39iHV6PT7+ap9FgQ4AqG1sw0+HTuO6jSvt6l9QgDee u2+BnZ9q4ll/714oVDq0dvXiaB73Q4yNCEVDWydKC0qRPsv6SEnR1Kgr17Y3m/aHB2/ZOW5509Su wJV/2Ouw801mxqxWRwseAH49ySUUoGgKWbfEgWVYnN/ZDJZhcex0ES/6Y6eLeMFnXhsNvwhvFH7U BJ3CgKOni3jR5xVVQqHkRreElaGInBWA0i9bIW/TIOdcCbasv4TP5uIJHMktxpFcy12Dvu4+fPDy 4FpsjmTA78KRW3YCByaQdDbhoROX5ccclwyP65Nx1Wm9fAWQxInBsiy8fGhoFQb0yRSD2lE0heBk XwhFNHxCvKFTqCA1a2f+OCTFF+IgL/hHiyBv00ChVEOvN3iU6CeK9p4+AI51zvEVCaHU6BEfG4ZL l88Y8/mcRVx0iMukw3ZJ0c+ZnoKq2mZo5XoUfNgEsCy0Cm7NnjXNFLs/e3oKjp0uAsuwKHi/EeIg L8gaVYPazZqWhF0/cPHEpV+2IiBWjO5y7kaQkTzFpnpj5vQrdHj9v6Z1WmevGi2dCvvDncYZlYYb aUUSGr5Rtk/XB/zvR4NOwULRyv3twoO5eHdT5pyxi35gyRATFYytGyfeMu4OuKToly2cgX1Hz0Eq U/AiBjif/MXzpvPPZ2ZMRXxsJBqa26Hs0kLZxa3ZRd5eWL3MVEssKjwEc2akIr+4EhqZHpqBGQJF 4fKVtq/NB1xzlWo9vtpvX5VTV4IxAF7+9kyLRz+FHojENIf43k8sLil6Xx8xHrvvJuw7cg4nzhaD oigsWTAday+ZD1+z1MAUReFPd2/FgWO5OHKqEEqVBguy0nH5ygWIvijDyJ03rcevOYU4nFOArh4p ZmUmYe2K+UhLsn3bbtvly3G8oAxSuWm5wMJyrerIIgWORqfnREaPYwZu1mwbfSCtM4mym1hcUvQA EBIUgG1XrcK2q4bPBOPrI8KmtUuwae2SYdt5CYW47JJ5uOyS0RdmnJuRjJwPLMsgdfbKsOTWhwEA t26Zi6tWOz59saPYtuNLKFQ60OP4V9cruXUBTVGICuVyCo53WSuCJcR6RXAarAHQ9HHCnpWWiCBj dWMBzdkTHLllR7Adlx3pCe4No2chqzXAoOWEvW6JaYY1mgo3BMdBRE8YNSwLgDH+z7JgDICun4W2 n4G2n+HX89kz0nDLBlN8Bu+GO45usQQTRPQeiE7OorNg9FVcOZHb1lYoEKCkugELbv4T/5rGmPGH jPQTg1uJ/nReGb74/jBUGseUHaZAIS0pDvfddo1HOefo1eO3ltYbDJCrrEfCBRrX+ITxxa1EX1Re i347q4GORElFHZRqDQJsDLqZLAT4+mDzpYsBcIku8itqbK7hTlFcbDxNU7hQxxVujAwNQkxYCAID fBEcEDBiFWkvoQDXXrp0rB+DMArcSvRbN6xAcGAAdHrHJMWkQCEzNd7jBA8AVyyZiz/fft2YzsGw LNKv+R0AYPOqxdjxG9tTdREmDrcSfWCAH7asXz7R3ZgUbLhk7FGCFqmwXNgpiWCJW4n+3PkKfPn9 r4NCZEcLRQGpU+Pwu+0bRx066o6IRd7ItiF99UgwZi629EjzeYLL4Faizy+uQq+0f+SGdlBYWg2l SoMAD8rzFx8Z5pBKw4yVnPYEx6FzwOCmt1Ll1q1Ef+2Vl0Di78PnCx8rFAVkpiZ4lOABIMFBFW3N qw65csyBW2F281TJFFBBMUzj0eFWog8O9Mf1m4b3xSeMTGiQY5I5WKbC8pwtT2cSHxOKiLBAdHRZ T+c9Wvx8RVAYq0W5lejziyvx+XeHbd5aGgmKAjJS4nH3zRvJ9HQUWMt0SxgbQqEAb/3jdjQ0dYEF 8Pzru9HZJUP2rCQ8/Nt1AIDDZ8rwxueHAAAvP7QN8dGmQqt9/Urc/iSXAenqdfNxyaJpoCgKe/bl 4tBxLluSW4n+bEE5evocu6bPK6qEXK6CJMCzpviOwGJ6T1TvMHzE3khP4ZJ8xkQGo7NLBrVGhzkZ 8QAAhUoDGEUfGODLvw4Anb0mfUSEBSLDeJ4fzf4+biX6LVdeggB/X4f5bFMUkJY8hQh+lFgY8hxg GCQMJiyEW4q1mU33o8IC+cdto1gGuJXoQ4MlHlNYwx2wlt6a4FgGRN/Zw+XtFwhoRHuS6POKK/H1 j0cdt08PCqlTY3HXbzaSNekoIPv0zicshCvwwrAsOnpkiA4Pgp+PCP6+YsiVarROdtGfKyhHR1ef Y895vgLb5AoS/DEKLKf3RPTOYGCkB4DWLimiw4MAANFhgahsUE/+kX7LlZfA10fsON97ikJmSjwR /ChhiSHP6ZiL/uJ1fWVD++QXfWiwBL/Zsmaiu0EwwjBkn97ZDCd6AJN/ek8YH1q7erDrQA60Vlw4 zZGb1bU/dPY82rt7hz8xRWHh9FRcMnf68O0IPJIAX3h5CaDTGSwEPmDMkyvVUKg0fKZhWyCiJ1jQ 0SvFxvufhVSutOu44wWlOF5QOmK7d77ei0dvvRa3XUVmbLZAUUBocADaOvrQ3i3jX7fctpMheYrt BVWJ6D2c2pZ2HDp7HhHBgVi7aA7+/OYndgveXv7+4dcIlvhjaVYm9ubkQuTtjfXL5iHA1/PyGthC mFH05iN9VKipbHtbVx8RPWFktDo9HnzlA+zNyeMNcj4iEVQazj97TXYW3nr0dw69ZlFlHX7zxCtQ qtT439c+AkVTYIyOVs/9Zxceuvka3HzlSodeczIQFjq8g46963piffFQPv35CH4+kWthgR8QfLDE H8/+/jcOv+bM1ES889jvIBQKwLIsL3gAUKk1ePa9L9DU3uXw6y0fuCsAAAM4SURBVLo7A8a89h4Z 7/o8Fq88InoP5ZOffgUAxISH4Jt/Por7b9zIv7dh2XyEBjqnrPKimenISIgFwOXJ++/fHsSL998K gHNA+XL/Cadc150JNYperzegu4+rwxgU4AuhMZlrWzcRPcEGBkbUGcnxmJmSgKtXmiq++jt5ba02 7gqkTInB/GkpWLdkLsTeXIG9po5up17bHRlq285XzFns7Z3ekzW9h7J64SwcOF2IQ2eL8PCrH6Ks tpF/b8U859Z5XzlvBqoaW1FW24h7//EO+mQK/kaw0snXdje0Wj0qa9r4561dUsxMjUNRZRNfC9De 6T0RvYdy5zVrcfhcEfQGA749fIp/fW5GMuZlJjv12jeuW4HP9h6FUq3BvpP5/OtxkWG4YslcdPY6 NoGEO6JQavDD/jzs3nsWUhm3myIUCqBUabH98fdwPL+SbzstKcauc/Oib+7oxv7TBYMa6PSm1FQd Xb3IL66y+wNEdPchGJzb5miOHy/aOnr4x7+eK4KPeGSHB5nCtL1V39yHU4WNw7SeWPQGzgjU3NGN bmk//rhtA/bm5ONCbSN8fcRYmpWJtYtnW/0dOJr7b9yIvTn5KKiohVBAI3tGGtYtnYcjecXodnAe RHeiT6rA7r1n8cP+fChVGv71sCB/+PuKseOfn/OvCWga65fPxP/ett6ua1BT56xzermTzeoOrND0 Qg8KfwocexZWgucQHCCCv9hryPdbe5TQGxj4+4kRGx0yjj1zPL1SBTq7ZBY7KsMRERKAmPBgi9f0 BgOKq5q598MCERzExZW0tfdB2m+cMTiwzwSCw+nt16C3XzNiO7lCjfKqlnHokevQ0dOPjp6hZ0Ud XVKrufZ40VMAKMo5g755/BXtpGu4Au7wydwpFs6W3yPLUm7xvdsKyzruL2T+/Zmflxd9kL8C0SHO MaAEt2oADdeJjCmtTrkGgUAYmpbuIPQpuLRwZJ+eQPAwiOgJBA9jXAx5FEWBFgjgwOUKgUAYJbzo lRoRWnsCh2s7ak4wLC74sGAooLWHTC4IhPFGqfHmHwspcFZnjU4Ijc45A38vAAwUhZU75RIEAsFG 6JAAokICwVMIDZDj/wG8m+mEjXNZMgAAAABJRU5ErkJggg== "
     id="image3047"
     x="0"
     y="0" />
  <text
     xml:space="preserve"
     style="font-size:40px;font-style:normal;font-weight:normal;line-height:109.00000334%;letter-spacing:0px;word-spacing:0px;fill:#000000;fill-opacity:1;stroke:none;font-family:Sans"
     x="240.29208"
     y="38.643047"
     id="text3049"
     sodipodi:linespacing="109%"><tspan
       sodipodi:role="line"
       id="tspan3051"
       x="247.06552"
       y="38.643047"
       style="font-size:34px;font-style:normal;font-variant:normal;font-weight:normal;font-stretch:normal;text-align:end;line-height:109.00000334%;text-anchor:end;fill:#ffffff;font-family:Dosis;-inkscape-font-specification:Dosis">VIEW AND </tspan><tspan
       sodipodi:role="line"
       x="240.29208"
       y="75.703049"
       id="tspan3053"
       style="font-size:34px;font-style:normal;font-variant:normal;font-weight:normal;font-stretch:normal;text-align:end;line-height:109.00000334%;text-anchor:end;fill:#ffffff;font-family:Dosis;-inkscape-font-specification:Dosis">SHARE OUR</tspan><tspan
       sodipodi:role="line"
       x="240.29208"
       y="112.76305"
       id="tspan3055"
       style="font-size:34px;font-style:normal;font-variant:normal;font-weight:normal;font-stretch:normal;text-align:end;line-height:109.00000334%;text-anchor:end;fill:#ffffff;font-family:Dosis;-inkscape-font-specification:Dosis">INFOGRAPHIC</tspan></text>
</svg>
