<?xml version="1.0" encoding="UTF-8" standalone="no"?>
<!-- Created with Inkscape (http://www.inkscape.org/) -->

<svg
   xmlns:dc="http://purl.org/dc/elements/1.1/"
   xmlns:cc="http://creativecommons.org/ns#"
   xmlns:rdf="http://www.w3.org/1999/02/22-rdf-syntax-ns#"
   xmlns:svg="http://www.w3.org/2000/svg"
   xmlns="http://www.w3.org/2000/svg"
   xmlns:sodipodi="http://sodipodi.sourceforge.net/DTD/sodipodi-0.dtd"
   xmlns:inkscape="http://www.inkscape.org/namespaces/inkscape"
   width="600"
   height="437.72"
   id="svg3428"
   version="1.1"
   inkscape:version="0.48.3.1 r9886"
   sodipodi:docname="section5-02-use-it-well.svg">
  <defs
     id="defs3430">
    <clipPath
       clipPathUnits="userSpaceOnUse"
       id="clipPath3836">
      <rect
         inkscape:export-ydpi="90"
         inkscape:export-xdpi="90"
         inkscape:export-filename="section5-02-use-it-well.png"
         ry="11.141093"
         rx="11.141093"
         y="-281.3519"
         x="1079.816"
         height="432.71509"
         width="594.98328"
         id="rect3838"
         style="color:#000000;fill:none;stroke:#2f5faa;stroke-width:5.00099993;stroke-miterlimit:4;stroke-opacity:1;stroke-dasharray:none;marker:none;visibility:visible;display:inline;overflow:visible;enable-background:accumulate" />
    </clipPath>
  </defs>
  <sodipodi:namedview
     id="base"
     pagecolor="#ffffff"
     bordercolor="#666666"
     borderopacity="1.0"
     inkscape:pageopacity="0.0"
     inkscape:pageshadow="2"
     inkscape:zoom="0.70872576"
     inkscape:cx="368.58902"
     inkscape:cy="307.99845"
     inkscape:document-units="px"
     inkscape:current-layer="layer1"
     showgrid="false"
     fit-margin-top="0"
     fit-margin-left="0"
     fit-margin-right="0"
     fit-margin-bottom="0"
     inkscape:window-width="1280"
     inkscape:window-height="727"
     inkscape:window-x="0"
     inkscape:window-y="25"
     inkscape:window-maximized="1" />
  <metadata
     id="metadata3433">
    <rdf:RDF>
      <cc:Work
         rdf:about="">
        <dc:format>image/svg+xml</dc:format>
        <dc:type
           rdf:resource="http://purl.org/dc/dcmitype/StillImage" />
        <dc:title></dc:title>
      </cc:Work>
    </rdf:RDF>
  </metadata>
  <g
     inkscape:label="Layer 1"
     inkscape:groupmode="layer"
     id="layer1"
     transform="translate(440,-213.49875)">
    <g
       id="g5342"
       transform="translate(-10.284572,0.33559129)">
      <g
         transform="translate(-130.15321,-21.164745)"
         id="g5334">
        <path
           id="path5118"
           d="m -270.07702,260.02649 260.15431,-2e-5 c 5.92029,6e-5 10.68603,4.76592 10.68603,10.686 l 6e-5,323.29259 c 0,5.91985 -4.76577,10.68598 -10.68606,10.68598 l -260.15442,-1e-5 c -5.91995,0 -10.68628,-4.76609 -10.68628,-10.68602 l 1.7e-4,-323.29249 c 0,-5.92017 4.76612,-10.686 10.68619,-10.68603 z"
           style="color:#000000;fill:#ffffff;fill-opacity:1;fill-rule:nonzero;stroke:#5f8dd3;stroke-width:14.36599922;stroke-linecap:round;stroke-linejoin:round;stroke-miterlimit:4;stroke-opacity:1;stroke-dasharray:none;stroke-dashoffset:0;marker:none;visibility:visible;display:inline;overflow:visible;enable-background:accumulate"
           inkscape:connector-curvature="0"
           sodipodi:nodetypes="sssssssss" />
        <text
           transform="matrix(1.4530528,0,0,1.4530528,2147.0672,2765.4993)"
               width="191.27077"
               height="98.623985"
               x="-1652.6989"
               y="-1629.7363"
             id="flowPara5007"
             style="font-size:20.64618683px;font-style:normal;font-variant:normal;font-weight:500;font-stretch:normal;text-align:start;line-height:125%;writing-mode:lr-tb;text-anchor:start;color:#000000;fill:#333333;fill-opacity:1;fill-rule:nonzero;marker:none;visibility:visible;display:inline;overflow:visible;enable-background:accumulate;font-family:PXL-2000-12 0;-inkscape-font-specification:PXL-2000-12 0 Medium">PASSWORD:</text>
	<text
           transform="matrix(1.4530528,0,0,1.4530528,2147.0672,2765.4993)"
               width="191.27077"
               height="98.623985"
               x="-1652.6989"
               y="-1595.7363"
             style="font-size:20.64618683px;font-style:normal;font-variant:normal;font-weight:500;font-stretch:normal;text-align:start;line-height:125%;writing-mode:lr-tb;text-anchor:start;color:#000000;fill:#333333;fill-opacity:1;fill-rule:nonzero;marker:none;visibility:visible;display:inline;overflow:visible;enable-background:accumulate;font-family:PXL-2000-12 0;-inkscape-font-specification:PXL-2000-12 0 Medium"
             id="flowPara5026">********</text>
      </g>
      <g
         id="g5100"
         transform="matrix(0.85616794,0,0,0.85616794,-2352.0927,2.8905848)">
        <path
           inkscape:connector-curvature="0"
           style="color:#000000;fill:#ffffff;fill-opacity:1;stroke:#5f8dd3;stroke-width:11.90714359;stroke-linecap:round;stroke-linejoin:round;stroke-miterlimit:4;stroke-opacity:1;stroke-dasharray:none;marker:none;visibility:visible;display:inline;overflow:visible;enable-background:accumulate"
           d="m 2917.7466,554.03613 c 4.9068,0 8.857,3.95016 8.857,8.85701 l 0,157.52237 c 0,4.90663 -3.9502,8.85701 -8.857,8.85701 l -215.6271,0 c -4.9067,0 -8.8571,-3.95038 -8.8571,-8.85701 l 0,-157.52237 c 0,-4.90685 3.9504,-8.85701 8.8571,-8.85701"
           id="path4975"
           sodipodi:nodetypes="cssssssc" />
        <path
           inkscape:connector-curvature="0"
           style="color:#000000;fill:none;stroke:#5f8dd3;stroke-width:11.90714359;stroke-linecap:round;stroke-linejoin:round;stroke-miterlimit:4;stroke-opacity:1;stroke-dasharray:none;stroke-dashoffset:0;marker:none;visibility:visible;display:inline;overflow:visible;enable-background:accumulate"
           d="m 2783.0489,638.34199 -87.1081,90.92219 227.9846,0 -87.1083,-90.92219 -26.884,25.26542 -26.8842,-25.26542 z"
           id="path4979" />
        <path
           style="color:#000000;fill:#ffffff;fill-opacity:1;stroke:#5f8dd3;stroke-width:5.56598377;stroke-opacity:1;marker:none;visibility:visible;display:inline;overflow:visible;enable-background:accumulate"
           d="M 2809.9331,663.60741 2695.9408,555.84467 2809.9331,448.08193 2923.9254,555.84467 z"
           id="path4977"
           inkscape:connector-curvature="0"
           sodipodi:nodetypes="ccccc" />
        <path
           style="color:#000000;fill:#000000;fill-opacity:0.09947641;stroke:#5f8dd3;stroke-width:5.56598377;stroke-opacity:1;marker:none;visibility:visible;display:inline;overflow:visible;enable-background:accumulate"
           d="m 2695.9408,556.53608 113.9923,107.07133 113.9923,-107.07133"
           id="path5050"
           inkscape:connector-curvature="0"
           sodipodi:nodetypes="ccc" />
        <path
           sodipodi:nodetypes="ccccc"
           inkscape:connector-curvature="0"
           id="path5052"
           d="M 2809.9331,663.60741 2695.9408,555.84467 2809.9331,448.08193 2923.9254,555.84467 z"
           style="color:#000000;fill:none;stroke:#5f8dd3;stroke-width:11.90714359;stroke-linecap:round;stroke-linejoin:round;stroke-miterlimit:4;stroke-opacity:1;stroke-dasharray:none;marker:none;visibility:visible;display:inline;overflow:visible;enable-background:accumulate" />
      </g>
    </g>
  </g>
</svg>
